{
  "products": {
    "product": [
      {
        "CD_PRODUIT": "TEC-PH-5816",
        "NOM_PRODUIT": "Samsung Convoy 3",
        "PRIX_ACHAT_PRODUIT": 153.2752,
        "PRIX_VENTE_PRODUIT": 166.594,
        "CD_SOUS_CATEGORIE": "SC001"
      },
      {
        "CD_PRODUIT": "FUR-CH-5379",
        "NOM_PRODUIT": "Novimex Executive Leather Armchair. Black",
        "PRIX_ACHAT_PRODUIT": 319.816,
        "PRIX_VENTE_PRODUIT": 474.77,
        "CD_SOUS_CATEGORIE": "SC002"
      }
    ]
  }
}